{
  "extends": "tslint-config-airbnb",
  "rules": {
    "space-before-function-paren": ["true", "never"],
    "variable-name": ["true", "allow-pascal-case"],
    "import-name": ["false"],
    "function-name": ["false"],
    "max-line-length": ["false"]
  }
}